Soal 01
n = 7, n2 = 3
0	1	2	3	4	5	6
1	3	9	27	81	243	729


Soal 02
n = 7, n2 = 3
0	1	2	3	4	5	6
1	3	-9	27	81	-243	729


Soal 03
n = 7, n2 = 3
0	1	2	3	4	5	6
3	6	12	24	12	6	3


Soal 04
n = 7, n2 = 5
0	1	2	3	4	5	6
1	5	2	10	3	15	4


Soal 05
n = 7
0	1	2	3	4	5	6
7	8	9	10	11	12	13
14	15	16	17	18	19	20

n = 5
0	1	2	3	4
5	6	7	8	9
10	11	12	13	14


Soal 06
n = 7
0	1	2	3	4	5	6
1	7	49	343	2401	16807	117649
1	8	51	346	2405	16812	117655

n = 5
0	1	2	3	4
1	5	25	125	625
1	6	27	128	629


Soal 07
n = 7
0	1	2	-3	4	5	-6
7	8	-9	10	11	-12	13
14	-15	16	17	-18	19	20


Soal 08
n = 7
0	1	2	3	4	5	6
0	2	4	6	8	10	12
0	3	6	9	12	15	18


Soal 09
n = 7, n2 = 3
0	1	2	3	4	5	6
0	3	6	9	12	15	18
18	15	12	9	6	3	0


Soal 10
n = 7, n2 = 3
0	1	2	3	4	5	6
0	3	6	9	12	15	18
0	4	8	12	16	20	24


Soal 11
n = 7
						*
					*	*
				*	*	*
			*	*	*	*
		*	*	*	*	*
	*	*	*	*	*	*
*	*	*	*	*	*	*

Soal 12 (adv, n only odd number)
n = 7
			0			
		0	1	0		
	0	1	0	1	0	
0	1	0	1	0	1	0
